GROUP,PACKAGE,CLASS,INSTRUCTION_MISSED,INSTRUCTION_COVERED,BRANCH_MISSED,BRANCH_COVERED,LINE_MISSED,LINE_COVERED,COMPLEXITY_MISSED,COMPLEXITY_COVERED,METHOD_MISSED,METHOD_COVERED
RDMiniProject,com.epam.exception,ExceptionResponse,53,0,0,0,7,0,10,0,10,0
RDMiniProject,com.epam.exception,AssociateException,0,4,0,0,0,2,0,1,0,1
RDMiniProject,com.epam.exception,GlobalExceptionHandler,122,7,0,0,20,2,5,2,5,2
RDMiniProject,com.epam.service,AssociateServiceImpl,0,152,0,2,0,27,0,10,0,9
RDMiniProject,com.epam.dto,BatchDto.BatchDtoBuilder,14,49,0,0,0,1,1,8,1,8
RDMiniProject,com.epam.dto,BatchDto,0,25,0,0,0,2,0,2,0,2
RDMiniProject,com.epam.dto,AssociateDto.AssociateDtoBuilder,19,44,0,0,0,1,2,7,2,7
RDMiniProject,com.epam.dto,AssociateDto,0,47,0,0,0,10,0,9,0,9
RDMiniProject,com.epam,RdMiniProjectApplication,5,7,0,0,2,2,1,2,1,2
RDMiniProject,com.epam.controller,AssociateController,0,49,0,0,0,11,0,6,0,6
RDMiniProject,com.epam.model,Batch,0,28,0,0,0,3,0,3,0,3
RDMiniProject,com.epam.model,Associate.AssociateBuilder,14,49,0,0,0,1,1,8,1,8
RDMiniProject,com.epam.model,Associate,0,38,0,0,0,7,0,6,0,6
RDMiniProject,com.epam.model,Batch.BatchBuilder,14,49,0,0,0,1,1,8,1,8
